30 30
-884 -609 -946 -938 -971 -193 893 -502 -622 194 -48 535 -215 -466 492 -820 872 780 -169 -266 -385 404 -154 619 -254 -820 -197 -374 578 -44
-670 -45 -845 -193 -946 -80 -231 -249 670 -76 -561 -459 -341 -185 -498 -92 -739 -972 913 -222 -120 734 -884 -597 310 -393 -237 -461 -132 -282
888 456 307 -789 776 -680 -715 -31 -826 723 -663 -340 -948 -833 -485 -844 81 -257 -891 -113 103 -566 -338 868 -644 -338 -495 -940 -87 279
-54 -908 -550 199 -976 -571 630 114 -284 -701 721 -780 -323 -711 255 -146 723 -73 -512 -967 -277 -465 338 503 -404 -637 -755 828 -295 -784
489 674 240 -159 -771 -264 -317 -196 -296 -535 -58 479 -906 920 -231 -920 -503 -996 -985 -763 -795 588 940 -140 465 -554 -323 145 -662 -831
-665 -104 191 -140 199 -833 -189 683 198 -857 -669 -455 -446 273 -753 438 992 -593 -438 -941 12 180 346 -728 -916 152 929 -215 296 213
-201 -84 -470 -917 -92 -348 -113 -696 -78 -907 829 -857 -711 559 280 -955 -367 -980 321 -184 -491 -92 278 5 -67 -251 451 -167 50 -657
869 -715 274 434 -864 23 -947 451 -949 -259 304 621 -110 -192 -57 -755 57 -293 394 -583 -68 768 -384 -776 -778 -323 -3 -789 342 -680
66 -435 -384 207 -876 -136 971 -868 -605 -606 -826 -372 -942 -511 -960 -519 -3 -240 -522 -774 -310 -524 -69 -10 -103 667 -916 262 373 -303
-433 -468 -492 -958 -557 -118 146 -844 403 -646 -492 -96 -501 -601 -314 -636 -237 511 421 -199 253 384 486 -865 957 367 -150 -703 -688 890
-262 -116 638 -115 -106 -91 -365 -487 -940 -408 -86 381 -103 -579 -733 679 180 -256 426 -186 -603 -278 -198 667 798 -298 -412 -957 504 92
-628 152 40 205 -827 -799 -780 -683 -136 -169 -814 -986 -806 -84 -4 -825 690 621 115 895 -614 -745 -188 -467 475 -64 -318 384 -42 -292
-496 -36 -983 -846 -154 140 -249 -726 -293 -231 -958 -448 -286 292 -924 -60 -402 -639 -372 523 477 -689 -377 -449 -354 681 -658 730 -72 -975
-310 -648 -152 -754 -348 -452 -139 -836 -68 656 -535 -433 -527 -97 -886 -25 98 970 -932 -270 562 -43 -351 66 -317 -41 836 -114 -694 -451
-120 -429 -703 -282 -479 -16 3 717 -421 751 -25 -701 -842 -87 -320 -204 -506 493 -933 653 -745 244 -725 -603 -642 -54 407 -840 -389 557
898 -338 682 940 560 -457 -668 258 -294 -592 200 -41 -772 -144 -930 -943 -769 -763 -776 -375 -782 -80 -356 -723 116 -59 -669 664 -353 641
-786 -818 -184 -359 -758 -385 -183 -275 -948 -240 -773 20 882 -807 -511 114 -684 -330 -470 911 -311 -805 -50 -532 978 871 -624 -909 153 868
-715 -970 -142 -268 189 -776 -926 809 -860 -668 -862 -403 -913 -657 895 983 -693 -415 -639 851 -786 -522 -189 959 -949 468 154 -780 -798 -59
-566 -869 596 -957 -507 345 -802 -682 -232 -288 -288 -261 -686 -358 -937 -292 -877 -110 -335 -845 -707 -794 -73 -144 -549 -469 -705 -531 888 613
-612 -353 -769 24 -451 -515 -49 -145 -92 -83 -643 966 182 -495 -704 681 -315 -107 -543 -283 -545 -408 196 -544 875 555 -670 -254 -945 -187
-682 -73 -164 -779 -692 91 -321 424 -913 274 -171 -430 -893 -761 -164 478 709 -561 -903 -429 421 -29 -864 -20 -184 -13 -369 424 -368 -67
-691 -736 -363 -550 752 -567 -304 -552 -262 113 -350 -401 828 -819 500 -829 505 -172 -977 399 -250 -714 -890 -651 -961 -817 -247 223 154 -895
-957 -87 488 -639 -310 -674 -795 485 347 -58 884 -155 750 556 -874 -456 -225 -49 -911 -498 -170 344 -301 -151 -522 447 -406 260 -171 -331
-698 -493 -618 -851 -142 -335 -710 177 -342 733 -582 -252 -173 -114 213 -881 180 -435 -696 -766 -604 679 -196 871 -197 -960 -68 -529 -812 52
4 -74 -920 -267 -478 -401 566 -916 -677 -941 -269 887 -54 -210 -127 -279 596 -344 -92 -628 523 -877 -460 -967 -308 -632 -39 -259 -878 -584
-980 -435 511 -291 -819 165 -645 -323 -583 23 -717 -909 -685 -439 927 -603 -440 -914 351 -218 -914 -137 14 328 248 -958 -616 -682 -898 394
-506 140 -107 -664 77 -680 -500 -65 -228 -415 535 -281 -982 -672 981 -99 -553 602 844 -243 -733 -333 -967 -172 190 616 770 131 -983 -526
-221 -243 -489 -497 -341 -594 -479 982 582 -885 -81 -400 -851 -790 442 -692 -434 586 -461 -750 987 -683 -240 -19 983 790 -972 -546 -377 -955
-330 -165 823 -222 802 -659 -962 -930 -231 -622 -480 -755 -903 -626 -52 -794 619 -956 647 -137 -70 -672 279 182 6 -449 -728 -353 -537 -384
-329 -246 -141 -493 654 425 -252 -572 -679 -783 47 -804 -865 -405 949 437 946 698 -535 -491 -597 162 -57 -835 -24 425 -500 828 246 -886
