30 30
-977 -560 -992 -586 -697 -743 -477 -417 -245 -402 -752 -815 -946 -965 -388 -108 -949 364 -472 -275 -673 -386 308 -681 -219 -196 -531 449 180 -189
-471 -780 -187 -8 -649 -875 -115 -967 -334 -111 -213 555 -409 -460 587 -61 -544 -270 -829 -945 -49 -420 -741 -338 -170 -672 -350 -313 -354 882
-962 -624 -529 -709 -448 -768 -504 -65 -757 -107 -328 -542 -532 -936 -521 -306 212 -216 -988 -485 -773 330 117 -862 -777 -228 -540 -894 -530 -774
-510 -639 -449 -731 -763 994 -364 -401 -944 -599 -954 -769 -221 -242 -310 -178 -250 -177 0 -468 -614 -414 -732 799 -691 -32 -440 -147 -644 -607
569 -106 -577 -69 -907 -426 -469 -175 -562 -404 406 -385 -109 166 -846 -826 -410 -968 -895 -941 -576 -214 -431 -519 -392 -443 246 -423 -975 -452
-903 -98 609 -436 -877 -304 -24 -588 -863 -956 -573 -615 -622 -253 -139 -525 -461 -179 -479 -17 -594 -507 -406 -902 -415 -459 -248 18 -124 -786
-847 -287 -612 -185 -138 -782 -554 -165 -142 -939 -366 -920 -689 -21 -4 -827 -772 -720 -337 -85 -430 -405 167 -692 -784 -146 -901 -455 -446 -408
-480 -281 -686 -520 -53 -342 662 -370 -617 548 -559 -380 -963 -432 -186 -770 113 -653 -68 -225 -799 -906 747 -619 -257 -558 -788 -647 -982 -873
-6 -909 -766 -22 -340 -141 -495 -922 -506 -151 -627 -145 -518 -597 -298 -308 -611 -948 412 -726 444 -52 -642 623 -814 -839 -698 -378 910 -30
-550 950 -771 -445 -303 -481 -126 -708 -296 -118 -500 -7 -20 -630 -959 -791 -160 -984 -400 -31 -981 -371 -694 -536 -212 -665 -671 327 -953 -728
-553 136 -255 -268 -864 -198 -669 -527 48 -859 -505 -286 -12 -976 -570 -623 -197 -29 -309 190 -166 -881 -373 -993 -162 -917 -44 -427 -606 -289
-879 -272 -818 -237 -861 -740 -620 -524 -375 -593 -678 -684 -62 207 -210 -137 -707 -148 -717 -451 -119 -47 -990 -2 -989 -382 -898 -552 -239 -368
-128 -513 -433 -551 -136 -70 -152 -889 -899 -15 -853 -390 -497 -50 -273 -280 375 -302 -727 -299 -143 -999 -723 -494 -676 -344 -418 -41 -168 -725
-744 -882 -361 -157 3 -369 -305 -787 -188 -931 -77 -267 679 557 -703 -798 -447 -986 -807 -987 -641 -868 -92 -274 -320 -608 832 -89 -413 54
392 -314 -158 -223 -193 -960 -715 -439 -351 -307 -674 -830 -937 -583 -483 -730 -229 -28 -341 -883 -488 800 -335 633 266 -971 -154 10 -434 -295
-282 -832 279 -135 -163 440 -878 -935 -416 -896 -3 -801 -866 -362 -806 709 -834 -383 585 -745 -655 -844 -651 -227 -293 -63 -278 -99 -36 -602
-317 -836 -156 -43 -893 -800 -384 -635 -598 -601 -234 -668 -735 925 -251 -244 297 -927 -751 -474 465 -738 -631 -914 -582 -9 -680 -835 -824 -925
-297 -749 -491 -714 -23 -35 -496 -874 -374 -294 -983 -911 -514 -943 -517 370 -34 -218 -549 -702 -27 -353 -425 -817 -131 -535 -252 -557 -574 -224
-629 -284 -412 -467 -11 -429 -876 -831 -493 -450 -311 -110 -793 -706 -241 -652 -73 -395 -14 -144 -721 -543 -45 -60 -205 -463 -690 -97 858 788
-591 -797 -39 -934 -974 46 -722 -379 -37 -778 -568 -46 -339 -580 566 482 -966 -149 -924 -292 930 848 -808 -795 155 -711 -200 275 -74 -81
-25 -595 -634 -618 -356 -357 -604 -928 -498 -104 -758 -739 -710 -164 -609 -201 -391 -190 -372 -696 -75 -533 -167 -748 -729 -215 597 -512 -885 -969
-675 -123 -112 -171 -38 -764 -759 -538 -437 -470 -232 -67 -638 -484 -822 -804 -398 -547 -840 -84 -802 -288 -742 -693 -776 -499 -155 870 -704 -871
-637 -349 -643 -952 -367 -677 -736 119 -397 -997 -858 498 -958 461 -421 -348 -321 -756 -333 -247 -605 -789 438 -572 -523 -243 -129 -522 -905 -516
-482 -755 -687 -979 -991 -685 -316 -679 -161 -462 -761 -995 -291 -442 -86 -332 -657 -419 -654 -256 -262 -254 -571 -980 653 -478 -199 -173 -329 -810
-240 -964 254 -90 298 -176 -56 -838 -100 -290 -825 -18 -269 -202 -767 -226 -208 148 -545 -851 -930 -541 -172 -396 -345 -438 437 -747 -823 52
-444 127 -230 -206 -79 -13 671 -897 -762 -803 -972 -661 731 -900 -422 -699 -796 -120 -204 -845 -509 -841 -811 -122 -587 -821 -150 -812 -567 -330
-775 -648 -101 -746 -860 -258 -91 13 -261 -159 -947 -283 -125 620 -857 -93 -300 -938 -209 -760 -712 -848 707 530 -181 -407 -360 -890 -579 -534
614 -87 78 -113 -569 -870 -918 -660 -424 -872 -632 -381 -556 -908 -195 -16 742 -233 -750 -96 -457 -957 -83 -456 -220 -650 -628 -640 473 -940
-781 -656 -970 -501 -837 -700 -19 -783 -365 -66 -865 -779 -998 -191 -355 -453 -561 -539 -51 -942 -134 -95 -621 211 -192 -1 -236 -932 -94 -590
-319 -842 -600 -683 -996 -528 -734 -312 71 -363 702 -819 -323 -805 -923 -277 -910 -130 -10 -913 -399 -888 302 -359 651 268 -265 -327 -82 -869
