30 30
-202 583 -502 -887 -501 668 -639 978 -564 -677 -695 773 -877 719 167 -239 578 -638 -710 -502 -138 -232 -932 -544 -350 -559 -802 -941 -646 -468
-785 270 -544 -206 -133 -337 625 -681 -27 -145 -196 -632 -653 -130 960 -791 310 -638 -567 -541 -567 -820 -912 -810 -765 -637 891 -717 -172 -29
-966 -993 -697 -756 940 -121 332 -888 -743 -298 -144 -356 -547 -138 -332 534 -235 -186 -929 116 634 386 -575 -665 587 169 -218 -140 -581 -774
-604 -578 -379 -497 -286 -76 -594 -912 -855 -149 -632 -658 -575 -339 495 -546 498 -429 379 -68 -151 -408 -43 -817 624 544 -923 770 -343 -175
-151 -815 433 -666 -781 -819 -146 -916 -626 -923 -665 -583 633 -24 -90 -515 -781 -526 -518 -144 -830 -181 -173 -252 -851 416 562 -375 261 890
30 -247 -155 -576 -751 -467 -352 -378 618 -427 -440 -222 144 -914 -489 -289 -90 -618 -26 827 -761 -386 690 77 -765 194 147 -179 24 -558
-655 -696 -487 -75 572 -962 -824 469 -227 -268 -843 -647 -657 -778 -891 -246 796 -249 273 -629 45 380 -674 -866 -580 16 804 514 -585 -205
-507 -296 498 -566 -252 -443 -270 556 -31 -891 -929 -107 -341 -385 -90 -660 -453 351 -976 -168 -151 -247 -776 606 790 -538 850 -146 -672 386
126 -350 -356 -8 -773 -674 -433 -359 -382 -883 -39 -722 -753 67 -391 -218 -172 -271 -640 924 864 355 814 -154 -879 -265 510 585 552 -723
-401 -124 159 510 385 84 -64 -507 -371 -450 103 841 -605 -420 354 -848 -889 -896 -308 -270 484 -398 -581 -908 -267 -205 -731 -358 -402 813
-829 624 -710 -26 170 511 -648 -297 312 -625 -430 -447 -944 -77 -514 -401 -597 -762 -984 -93 -819 883 237 -365 329 992 -379 -138 -276 -91
-987 84 -570 58 -369 -689 590 462 -5 -576 -744 346 -222 -374 219 -420 511 64 -28 -761 -739 -656 -904 -463 254 -57 -818 385 -332 -450
-927 -713 858 183 -871 -105 -869 -495 -417 -247 -156 -489 264 822 -361 -830 -600 -998 -579 -8 -79 301 -216 -985 -459 -711 759 -233 -506 731
-720 -59 -966 -694 -866 -338 126 790 -296 853 -432 -339 -591 -414 719 -871 348 92 -773 408 -819 -764 -858 -674 -634 825 -962 338 -194 -792
-773 924 -646 516 -279 -891 123 817 -820 -406 181 -312 754 -499 -705 -721 -137 485 615 -90 -130 -359 -309 -606 859 -640 -272 709 -964 -96
-6 -982 -304 -68 95 -366 -918 -335 151 -820 -755 779 176 -91 -894 -907 -453 -318 -824 -143 -524 -972 -738 -488 753 -566 -265 -966 -462 355
-252 -422 -906 -482 339 -204 -180 -142 572 -334 -996 -401 -65 -573 -214 -553 137 -855 -276 -180 -985 -311 -619 843 -766 -518 -937 777 -23 955
226 -557 -708 -420 -980 -527 -92 -368 67 -219 -983 -179 744 -408 -813 -101 -549 -170 -24 -508 -769 -383 -507 -86 -733 610 -961 402 -386 -932
-779 -959 -499 -500 -528 763 -857 -396 -523 -497 818 -383 -223 -522 512 630 811 416 -990 -124 -998 -79 -906 -470 -245 -343 -774 857 797 -85
112 -431 609 -589 -275 -69 258 -78 909 681 -281 140 -385 -617 -935 -33 -63 -839 -129 -507 -263 -889 -49 111 -223 -217 -426 594 -259 -426
925 -957 -850 -893 -284 -104 -807 -908 -804 -342 -432 -130 -932 -267 445 448 330 769 -279 993 386 -224 -228 -670 -351 -792 -662 -379 -935 -811
-867 -571 -371 -541 181 -621 -927 -395 -625 -415 880 -19 -405 -552 -275 -818 -484 -830 -190 107 -736 -434 -190 121 -964 -892 -716 832 -934 328
-493 -511 -795 -778 -196 -743 -505 129 -111 -450 -458 612 896 827 -725 -532 -345 900 -959 -743 20 -203 -486 -178 776 -994 -31 778 -330 -326
-320 999 -231 -26 705 -745 765 -847 -573 -409 -943 -345 -775 604 -118 -296 -830 -136 -560 -134 -270 -856 -16 -935 938 -517 -74 -439 -353 -45
-36 -322 -82 -589 -854 -878 -775 -472 554 -711 -982 -346 -423 -630 -632 -463 -181 403 -174 773 -2 -229 -258 -736 248 -809 -625 -235 830 -164
-960 -937 922 52 -487 -334 -557 -436 75 -702 122 -474 -814 476 -823 -779 874 -35 -668 -759 169 402 -335 -924 -75 573 -979 -884 -973 -137
-870 406 -327 -451 -772 -661 -369 49 -358 257 -259 791 -541 -336 -681 180 -30 -567 51 -704 -449 -188 -987 0 -626 193 206 -255 -771 -926
-150 -456 -636 -558 -375 -918 238 -621 -622 783 -662 -574 -171 716 -568 -218 -44 -683 -334 144 517 162 -814 739 -991 -293 574 695 -378 -470
-790 -279 405 -827 -785 -954 -373 21 -555 -580 -868 -646 -565 -54 -191 268 -141 -909 -977 -136 -759 -655 -845 -814 -537 -658 520 -843 -288 -775
-312 -212 -692 9 285 -506 -373 571 -351 -797 732 -193 -96 -755 467 -24 451 -397 363 -766 42 -266 -694 83 -944 233 -784 893 -949 -849
