30 30
-483 -865 -205 -982 33 -282 -547 -295 -495 63 -728 -643 -787 647 -73 -819 -828 -158 540 -417 -471 396 -8 -965 -27 372 -389 -23 -836 752
-355 558 399 550 -289 -611 -546 420 -597 673 -530 -82 -873 -389 -391 -93 -392 -921 -712 -304 -804 193 -24 -549 -5 -605 -282 -313 -913 -158
-348 -199 222 228 -299 -850 697 -121 -762 868 -745 492 -666 247 -491 -864 -275 -764 -134 -452 -960 26 -596 450 -925 -881 -831 930 -975 -629
-199 -43 350 -824 -571 -169 -378 -807 -701 -442 -482 -300 513 795 -47 -741 -780 633 -14 -526 -596 36 -823 -351 430 -881 -829 -852 -284 -393
588 -785 201 -438 464 145 -560 623 -230 -475 -3 -589 -445 514 -171 -375 -275 -252 -167 -230 -660 -838 -53 979 -942 -828 333 -539 -916 -458
-372 661 2 -145 -802 -346 904 -796 696 -88 -492 -105 -830 -149 -498 -329 -960 -798 -505 -84 497 -936 -234 858 -676 609 -691 -913 -187 -287
-333 -989 597 -594 470 -936 -49 25 -248 88 -54 -828 193 -698 -515 -306 472 -723 -977 -298 -86 799 -726 -525 -421 -969 -652 670 693 -645
-969 -577 -105 -805 -589 -352 -158 -384 -428 818 -398 -467 -385 -420 -734 -796 -952 -454 715 -908 940 270 -912 -301 -116 -547 -264 594 -626 593
-115 -544 384 -122 791 -636 677 507 -320 -247 124 788 202 -711 287 -996 -566 883 -435 -359 -849 18 -772 -105 -566 -601 219 289 -357 463
-606 -587 -996 -388 -630 -295 36 -596 -445 -402 -434 -316 684 579 661 329 -748 -139 589 -278 299 -441 -546 -467 683 -67 -249 730 -65 -943
-896 -338 -575 -963 -878 -703 -333 0 -490 -318 -661 -251 -995 -446 -119 -981 -238 -398 -854 -643 -714 -602 -975 -827 -223 -600 -500 -239 -491 697
-350 -579 -764 -207 217 -669 -139 -95 -895 -54 609 -535 -74 -743 -674 -49 331 -330 -396 -318 -39 531 -851 -140 -512 -763 -477 -83 892 -335
-366 600 930 694 887 869 464 -810 -633 125 -799 316 38 342 151 8 24 138 -863 -271 -498 955 -780 -954 475 -318 688 -589 -812 -521
-477 -928 -391 -693 -835 -956 -263 655 -584 -525 -663 462 -307 -829 -464 -191 -741 -166 -250 -713 -884 -72 -486 448 -862 -7 -45 -875 242 -218
-174 804 -998 -488 320 -827 793 459 -334 673 -694 -998 -808 -944 -539 -713 -214 -859 -53 -864 152 -855 704 585 -460 66 -928 -595 -692 776
-752 -745 -441 -609 -42 -84 -887 -264 -156 -627 -145 -27 -512 -878 -186 -356 -217 -944 -491 -396 -813 -507 -38 -982 -352 266 608 -143 -131 -426
-1 -192 -536 -938 -299 -871 273 -517 -571 -650 -942 -479 -104 -215 935 436 340 -187 -677 -26 -450 -852 -567 236 -619 -726 -30 -174 -114 -989
-19 969 443 -994 -296 483 -426 567 -724 -350 588 -637 -608 -38 -462 -638 -952 -111 -502 -464 47 -177 955 -78 972 -447 -914 -442 -836 576
-127 -427 -334 -529 -704 -590 -863 -10 -608 -148 -522 -220 -948 -42 -49 0 521 -381 -994 557 578 -46 -934 329 -696 -18 -484 -651 -987 -818
-133 -476 -487 229 -360 -30 -321 -218 -928 101 -620 -596 -350 843 -843 -859 -430 963 -213 -978 153 -710 -674 -956 -967 -856 -682 -319 -408 -493
-252 -607 938 -982 950 -878 305 -956 27 -49 -709 909 915 591 -391 -976 -83 -987 -314 -763 -918 -844 -100 -818 -713 -391 889 -404 -142 -56
-352 -562 854 -229 -913 -273 -638 -542 -603 -189 -407 -237 586 -816 -881 -38 -925 856 -824 -701 430 -437 -57 -487 678 -146 478 -466 -616 -936
271 -311 344 597 464 -626 746 -525 -309 -614 -368 178 -843 -175 -106 -545 -165 -215 -241 -562 433 832 -826 -797 654 -604 -95 -955 -896 -786
-872 -92 468 -356 -291 -329 -412 45 -417 -75 -769 108 362 -83 -718 -79 -684 -573 0 -390 -613 -956 -754 -29 -931 230 -691 391 -28 -506
-155 -211 -242 -290 963 -432 -132 713 246 -820 548 62 -250 -776 -830 228 -616 -170 -692 -709 -734 -384 197 328 -635 -227 -933 -93 411 -254
-646 -999 992 -974 -609 -663 -445 -728 -528 -583 -185 260 -991 -272 -629 -584 -645 -53 -513 -186 -640 311 -456 -542 -346 -358 -300 -36 -57 3
-222 82 997 -308 -851 -609 44 -727 -292 -18 -8 19 -32 117 -826 -429 -548 561 -600 -122 -972 555 -650 -622 183 -927 -209 -692 -516 -466
-278 -276 965 -620 -738 -225 834 -141 849 9 -4 -5 -392 -836 642 -217 -812 -328 -638 -518 228 -239 218 -77 578 -174 974 -390 -934 -443
-660 -673 -707 -863 -702 -32 -766 -154 988 -279 -760 -277 -359 -42 -311 -412 -481 -397 -453 341 -685 -951 -142 -988 -289 -376 362 -44 -502 -647
-235 -324 -577 -197 -376 -135 326 -601 -864 -246 -71 -721 -775 -538 -353 -495 -248 -589 -428 -544 -503 -89 -600 -483 -731 -765 196 -952 784 -704
