30 30
-192 -771 -427 -121 -324 -470 -255 170 531 -397 -230 -506 -37 -946 -241 -690 -560 -539 -871 -130 -175 -929 -228 -358 515 -608 -580 -527 -364 -757
-885 -193 -529 -503 -206 -653 -332 -50 -62 -165 -842 -620 314 -56 -362 -245 760 -677 -845 192 -250 -657 69 -785 -257 -261 -265 -80 -708 -841
525 -699 -780 -923 -817 -748 -432 -564 -396 -852 -63 -450 -867 -891 -173 -802 -760 -646 -680 -420 -706 -931 -790 -553 -563 -345 -108 258 -773 -325
-71 -966 -29 -327 -854 -34 -663 -797 -277 -254 -310 -295 -233 491 -414 -770 -128 -933 -675 193 -398 -603 -744 -718 -334 -827 -58 -188 -697 -107
-996 -794 -170 -262 -264 -333 -457 -509 -673 -54 -820 -409 -549 -242 -517 -360 -700 -147 -869 -667 -850 -567 -913 -504 -417 -159 -970 -156 -236 -289
-791 -542 -229 -259 -344 -912 824 -654 -612 -586 -400 -799 -536 -978 -814 -826 -607 -161 -293 -7 -357 400 -425 -42 -479 -428 -632 -949 -442 -260
0 340 -578 -944 -548 -988 -101 -712 -828 -961 -109 -461 614 -936 -532 -146 596 -645 -69 987 -805 -466 -494 -521 -691 -588 -460 -930 -592 -385
-145 -256 -686 -829 -106 999 -238 -579 4 -719 -809 -23 -137 -267 -17 -857 -326 -778 -960 -672 -405 -18 -149 -864 -275 -972 -142 -154 -606 -737
-497 -965 -212 -884 -349 -726 -927 -158 -546 -143 375 -164 -116 -711 -939 -810 -893 518 -995 -559 -291 749 -895 -406 -750 -268 -484 318 -331 -94
-315 -975 -844 -84 -493 -716 -681 342 -637 -746 503 -528 -582 -957 -296 -900 -537 -761 -555 -926 -767 -538 -758 -897 -365 -459 -318 -215 -299 -68
-573 -180 -191 -977 408 -123 -832 -765 -157 -777 -627 -297 -714 -789 -100 -500 -302 -694 -519 -305 -792 -585 -294 -391 -171 612 244 -64 -498 774
-709 -452 -843 -856 -336 -920 -557 -703 -629 -481 -342 -280 -51 -846 -798 -22 -513 -531 -604 -811 -313 -410 -901 -249 -723 -477 -394 -117 652 -616
-522 -376 -525 95 -234 549 -853 -79 -281 -4 -910 -1 -237 -866 -243 -602 -395 -488 706 -129 -655 827 -83 357 -91 -928 -312 -909 -643 -476
-947 -656 -102 -144 -762 -287 -624 -216 -266 967 -351 -803 -974 -508 -288 727 -754 527 -615 -967 -515 54 -682 -133 901 -21 -953 -876 747 -783
133 -5 -203 384 -189 -861 -619 -599 -804 471 -389 -889 -225 -609 -731 -613 -728 -88 -53 -722 -631 -831 -126 -244 -458 -774 -839 -489 -998 -870
-38 -766 364 -878 -676 -924 -516 -185 -384 -510 -543 -169 -796 -617 -950 -894 -505 281 -902 -167 -816 -514 -725 -698 -800 -628 -429 -979 -2 -906
-434 -496 -270 -523 -303 -141 -370 -214 -940 -976 218 -282 -587 278 -533 -635 -577 -311 -246 -367 -124 -833 -511 -339 -97 -258 -598 -882 -199 -437
-626 -596 309 -306 140 -898 -687 -49 -618 -77 -904 -775 -343 -768 106 -593 149 917 425 986 289 -984 497 -819 -896 -545 -196 -993 -248 -36
-184 -103 -44 -202 -48 -666 -59 -32 -232 -110 -269 924 -407 -755 -683 -424 -507 -495 -253 -576 313 -443 -795 -956 -307 -272 -356 -664 -983 -239
-317 -941 -76 -104 -61 -764 -919 -285 -986 -435 -338 -883 -387 -478 -26 739 219 -840 -278 -740 -905 -377 -15 -710 -10 -614 -544 -732 -436 -818
-590 -60 -638 -86 -921 -221 -467 430 -174 -187 -600 -658 -72 -449 -415 -390 -822 279 -263 -218 -808 -985 -648 -300 -727 -662 -379 -105 -630 -991
-742 -346 -649 679 -52 -994 -368 -30 32 -401 -413 -85 -70 -115 607 -235 815 548 -911 -570 -3 -752 -416 -502 -879 -96 -322 -684 -717 -836
-971 -148 -715 -198 -518 841 -335 -112 -486 -591 -821 -209 -721 -671 -162 355 -491 61 -959 -14 -942 -830 -19 -93 -328 -815 -464 -111 -472 -183
-550 -917 -743 -279 -473 -447 -75 -90 -471 -981 -399 -419 -224 -610 -729 -412 -166 -759 -431 -639 -309 -581 -954 -660 -439 -551 -925 -873 -408 -375
-701 -922 -28 -887 -880 -57 -997 -113 -674 -745 -393 434 -679 -455 -823 -135 -707 -490 -812 -945 -685 -31 -914 -152 -12 -65 -526 -858 -98 661
-40 692 -451 -835 -330 -361 -353 -597 -813 -890 -210 -82 -181 252 -200 -284 -190 -462 -16 -226 -178 -990 -575 -127 -756 -47 718 -286 -806 -622
-421 -952 -454 263 -877 -43 944 -565 -749 179 -136 -915 -788 816 -150 -499 -422 -982 -611 -989 -382 -354 -138 -201 -951 -25 -118 -888 -779 -935
-772 -642 -547 551 -530 -182 -372 -482 -172 728 -524 -337 -552 -186 -634 -824 -934 -520 -177 -980 -87 -194 -881 -465 -747 -786 -341 -963 -962 -380
-849 -574 -899 -641 -916 -534 -589 565 6 -868 -114 -733 -371 -781 -787 -584 -78 -512 -561 563 900 -151 -554 -276 -139 40 -937 -903 -271 -556
-665 -647 -205 -640 -359 -290 -423 580 -195 -6 -13 -689 -66 -240 -670 -27 -426 -231 -702 -125 -381 777 -207 -751 -562 409 -179 -730 -418 -283
