30 30
-35 13 -181 375 -262 173 -481 682 -862 690 -29 189 -440 4 -927 650 -338 796 -872 724 -968 433 -136 84 -232 724 -301 72 -517 709
850 -155 596 -551 193 -298 442 -536 716 -145 14 -750 66 -66 760 -708 960 -438 777 -924 61 -986 640 -54 67 -713 498 -374 36 -928
-329 320 -257 186 -628 147 -352 16 -438 458 -371 496 -359 502 -227 192 -766 498 -592 61 -801 513 -376 534 -421 280 -126 467 -964 709
16 -221 693 -904 258 -64 669 -865 609 -840 500 -537 534 -434 208 -733 35 -696 219 -355 624 -549 30 -40 784 -620 893 -333 556 -966
-510 395 -451 813 -708 753 -39 69 -63 803 -79 570 -297 845 -982 311 -57 281 -724 319 -124 446 -82 221 -158 804 -7 89 -216 865
942 -221 838 -447 970 -989 9 -90 492 -590 240 -425 296 -609 310 -216 888 -673 369 -228 687 -195 544 -5 401 -223 889 -814 379 -609
-506 37 -698 708 -806 659 -532 723 -956 27 -192 241 -618 522 -306 666 -252 343 -544 439 -737 43 -878 133 -283 186 -856 956 -68 909
906 -998 430 -405 375 -359 210 -776 244 -141 987 -705 403 -16 371 -455 664 -957 822 -965 244 -878 345 -904 157 -616 380 -850 680 -388
-733 818 -653 274 -159 264 -122 714 -710 132 -813 920 -819 5 -222 773 -414 956 -560 759 -341 576 -214 201 -314 137 -777 449 -887 823
854 -916 669 -609 892 -94 88 -221 679 -800 351 -750 63 -205 994 -385 155 -513 907 -774 399 -382 840 -565 980 -236 603 -99 937 -843
-213 763 -605 702 -435 918 -460 348 -399 943 -383 223 -498 881 -695 575 -265 762 -705 205 -172 980 -970 769 -378 353 -39 739 -129 873
889 -684 272 -200 409 -703 470 -731 560 -131 755 -431 868 -653 523 -782 630 -681 745 -360 93 -749 960 -173 760 -365 182 -737 826 -606
-598 204 -976 141 -77 650 -441 889 -265 60 -804 736 -712 883 -734 3 -603 587 -619 797 -469 599 -724 489 -988 436 -12 477 -301 114
198 -470 36 -433 264 -22 579 -743 492 -453 997 -176 547 -481 16 -515 660 -963 162 -147 586 -584 24 -708 478 -669 410 -799 364 -603
-586 396 -261 171 -267 294 -908 874 -230 707 -531 593 -422 57 -298 632 -711 138 -197 79 -121 131 -95 961 -687 720 -913 39 -555 599
764 -119 523 -169 46 -791 376 -571 692 -837 351 -427 399 -51 47 -348 430 -360 293 -359 413 -802 319 -490 943 -570 548 -557 840 -432
-26 593 -160 372 -422 935 -838 260 -720 310 -347 548 -506 580 -740 632 -873 138 -592 73 -973 728 -251 32 -529 52 -78 375 -128 45
978 -310 476 -726 297 -264 491 -478 867 -484 792 -482 703 -791 719 -384 785 -628 258 -93 630 -463 969 -623 274 -89 481 -937 597 -849
-202 130 -380 426 -482 183 -139 234 -365 718 -271 677 -413 887 -507 36 -941 656 -776 64 -502 686 -502 973 -903 654 -426 620 -140 622
795 -556 63 -934 817 -618 251 -438 126 -610 266 -406 966 -341 155 -829 59 -167 795 -783 712 -855 565 -654 73 -806 973 -269 908 -319
-493 277 -897 379 -233 553 -655 285 -533 240 -70 482 -24 33 -383 724 -471 461 -113 825 -450 305 -833 669 -466 837 -86 488 -51 537
472 -468 995 -74 199 -514 58 -394 524 -828 954 -911 836 -102 722 -570 941 -775 52 -564 134 -637 623 -248 324 -522 6 -91 488 -161
-135 442 -421 589 -495 706 -399 706 -433 864 -493 383 -975 458 -723 210 -693 31 -118 452 -633 613 -249 484 -976 249 -863 936 -136 294
93 -960 899 -112 595 -324 279 -58 715 -819 724 -284 308 -499 584 -215 307 -204 335 -653 410 -682 728 -4 743 -378 371 -371 409 -871
-813 309 -272 404 -129 922 -470 128 -453 936 -353 799 -700 19 -323 654 -591 107 -688 234 -908 83 -139 483 -92 98 -911 105 -519 883
554 -322 221 -720 868 -766 419 -263 142 -800 561 -515 183 -967 29 -2 290 -215 934 -949 970 -819 14 -482 490 -91 970 -728 757 -28
-359 767 -965 418 -148 844 -268 5 -33 926 -519 954 -728 866 -219 684 -260 407 -728 724 -185 90 -81 123 -432 914 -624 178 -227 825
60 -99 928 -416 393 -890 504 -763 422 -662 334 -283 597 -588 416 -743 271 -87 649 -650 38 -398 617 -263 426 -206 412 -477 759 -983
-398 329 -282 598 -18 798 -877 922 -111 533 -149 609 -638 639 -27 770 -290 760 -116 484 -467 74 -851 653 -48 734 -159 39 -284 167
642 -539 64 -538 967 -629 139 -536 443 -507 896 -520 119 -669 477 -108 509 -827 30 -380 187 -661 120 -84 31 -694 832 -283 316 -91
