30 30
862 -657 -25 -396 -716 -998 -970 318 -402 -893 -117 -124 -426 -277 -643 -719 -51 -654 -660 -739 171 -322 -478 -82 -265 -443 -1 -72 -279 -460
-794 -12 -696 -870 -278 -282 -908 -710 -902 -732 -177 -472 -442 -502 -75 -137 -733 -171 -222 236 499 -43 -148 -572 -780 -447 -214 -810 -608 -680
-795 -248 -132 -30 -959 -772 -63 -84 -817 -706 -510 757 -497 215 -486 -64 -589 -365 -401 -358 -661 -345 -451 -953 -519 -768 -652 -96 -364 -207
-867 -215 -879 -210 -175 -258 36 -792 882 -833 -765 -273 -552 -812 -257 -285 -149 -366 -463 628 993 -626 -302 -967 -293 -411 -225 -394 -656 -73
-863 -264 -702 -682 -231 -602 -428 -632 -841 -952 -504 -403 -891 -740 -899 -578 -169 -600 -637 -756 -208 -29 -746 -524 -116 -692 -452 -317 -212 -892
-882 -777 -41 -820 -839 -427 -805 -304 -325 -6 -101 -483 -909 -154 -107 -579 -211 -918 -228 612 -350 -631 -565 -729 -616 -224 160 -295 -410 -112
-866 -744 -241 -676 -129 -250 -424 -377 -362 -294 -397 -127 -705 -53 -568 -320 -695 -321 -983 -104 -498 -439 -386 -217 4 -743 -624 -382 -509 -192
-330 -4 330 -587 951 -97 -461 -778 -800 -281 -351 -849 -938 -921 -165 -972 -92 -32 -875 -535 557 -933 -412 -480 -308 -468 -663 -227 -328 -309
-252 -633 -335 -7 -120 -693 287 748 -721 -555 -89 -645 -781 -527 -642 -2 -869 -393 95 -414 -90 -927 -737 -311 -910 -951 -354 -188 -916 157
-950 -650 450 -66 509 249 -31 141 -613 -827 -267 -985 -671 -651 -750 -930 -109 -592 -573 89 -745 -131 -234 -620 -388 -785 -284 -614 -997 -815
549 -942 -895 -563 -347 -145 -455 -727 -61 -674 597 -665 -726 -629 -584 -731 -437 -18 -611 -526 -528 -289 -598 -718 -521 -14 457 -491 -564 -380
-232 -194 -974 -493 -361 -689 -385 -748 -960 -496 -836 -283 -357 -33 -529 -133 -605 -329 -734 -583 -256 -464 -8 -887 -749 -722 -697 -975 -80 -628
-17 285 -299 -268 -37 -346 -327 -672 -446 -331 -994 -155 -966 -244 -585 -160 -662 -831 366 -873 -139 -838 -823 -709 854 -646 -901 -400 -878 -159
-178 -919 -811 -54 -954 -580 -508 -419 -539 -888 -834 -95 -574 -735 0 -961 -100 579 176 -588 -384 -554 -896 -558 -125 -209 -418 -458 -143 -670
-763 -553 -625 -247 -673 8 -490 483 -432 -926 -356 603 -783 -367 -218 623 -797 -391 -13 -48 -381 -668 -488 -172 -775 -26 430 -506 -374 -157
-189 -691 -769 492 -907 -449 -639 -355 -757 829 -27 -287 -703 -485 -236 -88 -523 -436 -337 -332 -847 -263 -441 -829 -505 -634 -507 -249 -852 -511
-848 -65 -641 -60 -992 -440 -958 -845 -635 -5 -170 -814 -383 -915 -911 -444 -840 849 -545 -40 -376 -928 -880 -809 -166 -604 -936 -853 -404 -140
-434 -698 -971 -85 -230 -3 -111 -431 -433 -538 -378 -78 -296 -824 -307 -187 -142 -741 -764 814 -548 -874 -525 -532 -420 -704 -206 -334 -373 -313
-501 -473 -105 -147 -979 -425 663 -15 -450 923 630 -969 -45 -900 -885 -804 -251 -162 -543 946 -23 -860 -86 -338 -9 -754 -288 -688 615 81
-260 197 419 -666 -913 -771 -770 433 -655 866 -69 -955 -533 -599 -707 -318 -714 -94 -240 -203 -798 -755 -935 -667 -782 -153 -417 -42 -130 -71
-872 -973 909 -724 962 -708 798 -76 -976 -174 -216 -993 -593 57 -196 -474 -855 -135 -10 -699 -514 -607 885 -341 -253 -494 -965 -197 -712 146
-261 -932 -917 512 -816 -372 -894 -601 -235 -453 -479 -303 -945 -512 -46 -949 -477 -243 -889 -575 -747 -200 -183 383 -416 -988 -540 -315 -822 -68
710 -50 -818 -871 -269 -742 -842 -813 86 125 -503 -779 -619 -11 -832 -922 -158 -363 -766 -34 -883 -544 -438 -890 -982 -761 -353 -603 -850 -690
-467 -934 -237 -644 -406 -856 -518 494 -469 -343 -542 906 -531 -213 -182 -141 -956 280 809 -180 940 -623 -789 -371 -275 -368 -457 -617 -190 -298
-413 680 -541 -83 -316 -978 -903 -859 -920 -191 -940 -520 -369 -219 -686 -675 -466 -259 -595 -513 -399 -119 -24 -456 -560 876 -184 955 -254 40
-923 -314 -576 -99 -590 -807 -349 -868 -801 456 -220 511 -344 -499 -828 -113 -876 -884 -114 -77 -122 -435 149 -245 -359 -340 -87 -238 -272 -857
-557 -91 -395 -246 -290 -534 -324 -448 -806 -980 -929 -301 117 -67 -515 -181 418 977 -517 -103 -409 -20 94 -784 -310 -118 -201 -864 -342 -819
-943 -944 -481 -152 -407 -638 -44 -28 -168 -767 -291 -390 -482 -774 -233 765 -465 -939 -405 -536 -844 -530 -591 -759 -421 718 -653 -193 -52 -760
-398 -846 -429 -500 -150 -35 268 -108 -821 -986 -947 -694 -58 -658 634 -788 -941 568 -606 -123 -678 -422 -803 -571 -205 -622 -134 -161 -717 -597
-360 533 -991 -830 -70 -163 -957 -19 -305 -167 -776 694 -326 -648 893 -683 -843 -681 -415 -297 -300 -996 -898 -255 -516 743 -685 412 -790 -38
