000000000010000000000000000000
000100000011000000000000000000
111100000010000000000000000100
100100000010000000000000000100
100100000010000000011011101100
110100000111000000001110100100
100111111100000000000000111110
100010000110000000000011101011
000000000010000000100010000001
000000000011000011100010100000
000000000001111110111111110000
000000000000001000010000011000
000000000000001000000000001000
000000000000011000000000001000
000000001111110000000010111100
000000001100000000001111100110
000000000100000000000000000000
000000000100000000000000000000
000000001111111100000000000000
000000000010001100000000000000
000000000000000111100000000000
000000000000000100100000000000
000000000000000000100000000000
000000000000000010100000000000
000000000000111111100000000000
000000000000100100110000000000
000000000000000100010000000000
000000000000000100000000000000
000000000000000100000000000000
000000000000001111000000000000
