111100110000000101111000100001
000111011001011111100000101011
000101111001110010100000111010
000100111001000001110001101111
000000110000000000010111000001
000000011000101110110111110001
000001101011111111011100110000
000000101111000101110000010100
000000101001001100100110011111
000000111001010110111100010100
010000010001110011011000011000
010001101001100000011000001111
111111101111001000010001000000
010000111100001011011001000000
111000100110011110010011001000
000000101111110110011111011000
000000110000001100110101111000
000000100000001000010000000000
000000100100011100011110100000
010110000111100100001000111000
111101100000110100001111101100
100111000110101101110110001110
100101001011111011011100011011
000001011001000000010000010010
000111001111100100010000000011
000100011000100100111000000010
011111110001111100001100001110
000110000111000100010110001000
000111100011110000011100011100
001100000000011000010000000100
