000000000000000000000000000000
000000000000000000000111111100
000000000000000000111100011000
000000000000000000100000000000
000000000000000000100000000000
000000000000000000100000000000
000000000000011111100000000000
000000000000010000100000000000
000000000000010000100000000000
000000000000000000100001000000
000000000000000000100001100000
000000000000000001100001010110
000000000000000001111111111100
000000000000000000010001000000
000000000000000000000001000000
000000000000000000000101000000
000000000000000000000111011000
000000000000000000001101111000
000000000000000000001000001000
000000011000000000001000011000
000000001000000000001000001110
000000001000000000001000000000
000000001000000110011100000000
000000001000000011110100100000
000010001000000001000111100000
000011001000000001000000100000
000001111100000001000000110000
000000001000011111000000100000
000000001110010000000000000000
000000000011110000000000000000
