000000000000000000000000000000
000000000000000000000000000000
000000000000000000000000000000
000000000000000000000000000000
000000000000000000000000000000
000000000000000000000000000000
000000000000000000000000000000
000000000000000000000000000000
000000000000000000000000000000
000000000000000000000000000000
000100000000000000000000000000
011100000000000000000011110000
000111000000000000000010011000
000001000000000000001110010000
000001010000010000111000010000
000001011111111001100000000000
000001110101001111000000000000
000000000100000010000000000000
000000000000000010000000000000
000000000000000010000000000000
000000000000000010000000000000
000000000000000011100000000000
000000000000000110111000000000
000110000010000100001111000000
000011111010000100000001000000
000000101111110100000001000000
000000100000011111000001000000
111111100000010000000111000000
000010000000111000000000000000
000000000000001100000000000000
