000000000000000000000000000000
000000000000000000000000000000
000000000000000000000000000000
000000000000000000000000000000
000000000000000000000000000000
000000000100000000000000000000
000000000111111110000000000000
000000000000010000000000000000
000000000011110000000000000000
000000000010010000000000000000
000000000000011000000000000000
000100000000110000000000000000
111100000000100000000000000000
100111111100100100000000000000
110000100111111100000000000000
000000000001001100000000000000
000000000001001000000000000000
000000000000001000100000000000
000000000000001000101110000000
000000000000001000100010000000
000000000000011111111110100010
000000000000010000000010111110
000000000000010000000011100010
000000000000010000000110001110
000000100000111000111110000010
000001100011101100000000000111
000000111110001000000000000000
000000001000001100000000000000
000000000000000100000000000000
000000000000000110000000000000
