000000011111110000000001000000
000000000000010010000011111100
000000000000010011100010000000
000000000000011110000011000000
000000001110001011001110000100
000000001010011101000010000100
000000011010110001001110000100
000001000011100001111010000110
000011000001000001010010001100
000010000001100001000000001000
010010000000000001000000011000
010010000010000001110001110000
011110000010000000010001000000
000011000110000001110001111100
000001000011000001011111010000
000001000010000000010100000000
000011100010000000000111100000
000000101110000010011101111100
000000101000000011110000110000
000001111100001000010000000000
000001000110001000010000000000
000001000111111000010000000000
000001000000001001111100000000
000111000000111111000000000011
000100000111100010000000000001
001110000000000011000000000111
000010000000000010000000111100
011110000000000010010111100100
000000000000000010011100000000
000000000000000111111000000000
