000000000000000000000011000000
000011100000000000000111110000
001110111100000000000000100000
001001100110111100010110111100
001001000101100011111101100000
011110000111110010010100110001
110100011100100011100100011111
100110001001100000011100010000
000000001000000001111000111000
000000111100000111001111101100
000000000110000001000000011000
100100100010000001111000001100
111111111111110001001110000000
000010011000000001000100000111
001110111100000001000111000010
000100100110000001000000000011
001100000010000001000100001110
000100000000001011111110011010
001100010000111111001011110011
100101010111000100000010000110
100111111101111100001110000000
101100010000100000000100000000
101000110000100100000110110000
111000010000111100000011101110
001000110000111100000000111010
000000100001110100000000010000
000000100000010100000000110000
000000110000110100000000100000
000000010000100111000000111110
000000000000100000000000001010
